%YAML 1.1
%TAG !u! tag:unity3d.com,2011:
--- !u!1001 &100100000
Prefab:
  m_ObjectHideFlags: 1
  serializedVersion: 2
  m_Modification:
    m_TransformParent: {fileID: 0}
    m_Modifications: []
    m_RemovedComponents: []
  m_ParentPrefab: {fileID: 0}
  m_RootGameObject: {fileID: 1775018873607542}
  m_IsPrefabParent: 1
--- !u!1 &1775018873607542
GameObject:
  m_ObjectHideFlags: 0
  m_PrefabParentObject: {fileID: 0}
  m_PrefabInternal: {fileID: 100100000}
  serializedVersion: 5
  m_Component:
  - component: {fileID: 4118057897951592}
  - component: {fileID: 212086459776777844}
  - component: {fileID: 95262535045311410}
  - component: {fileID: 60425043870001422}
  - component: {fileID: 50388407154348236}
  - component: {fileID: 114305415778343146}
  - component: {fileID: 114740525785152756}
  m_Layer: 0
  m_Name: Bird
  m_TagString: Player
  m_Icon: {fileID: 0}
  m_NavMeshLayer: 0
  m_StaticEditorFlags: 0
  m_IsActive: 1
--- !u!4 &4118057897951592
Transform:
  m_ObjectHideFlags: 1
  m_PrefabParentObject: {fileID: 0}
  m_PrefabInternal: {fileID: 100100000}
  m_GameObject: {fileID: 1775018873607542}
  m_LocalRotation: {x: 0, y: 0, z: 0, w: 1}
  m_LocalPosition: {x: -22.44, y: -7.9, z: 0}
  m_LocalScale: {x: 1, y: 1, z: 1}
  m_Children: []
  m_Father: {fileID: 0}
  m_RootOrder: 0
  m_LocalEulerAnglesHint: {x: 0, y: 0, z: 0}
--- !u!50 &50388407154348236
Rigidbody2D:
  serializedVersion: 4
  m_ObjectHideFlags: 1
  m_PrefabParentObject: {fileID: 0}
  m_PrefabInternal: {fileID: 100100000}
  m_GameObject: {fileID: 1775018873607542}
  m_BodyType: 0
  m_Simulated: 1
  m_UseFullKinematicContacts: 0
  m_UseAutoMass: 0
  m_Mass: 1
  m_LinearDrag: 0.1
  m_AngularDrag: 0.05
  m_GravityScale: 0
  m_Material: {fileID: 0}
  m_Interpolate: 1
  m_SleepingMode: 1
  m_CollisionDetection: 0
  m_Constraints: 0
--- !u!60 &60425043870001422
PolygonCollider2D:
  m_ObjectHideFlags: 1
  m_PrefabParentObject: {fileID: 0}
  m_PrefabInternal: {fileID: 100100000}
  m_GameObject: {fileID: 1775018873607542}
  m_Enabled: 1
  m_Density: 1
  m_Material: {fileID: 0}
  m_IsTrigger: 0
  m_UsedByEffector: 0
  m_UsedByComposite: 0
  m_Offset: {x: 0, y: 0}
  m_SpriteTilingProperty:
    border: {x: 0, y: 0, z: 0, w: 0}
    pivot: {x: 0.5, y: 0.5}
    oldSize: {x: 2.81, y: 2.27}
    newSize: {x: 2.81, y: 2.27}
    adaptiveTilingThreshold: 0.5
    drawMode: 0
    adaptiveTiling: 0
  m_AutoTiling: 0
  m_Points:
    m_Paths:
    - - {x: 1.1949999, y: -0.945}
      - {x: 1.225, y: -0.905}
      - {x: 1.235, y: -0.84499997}
      - {x: 1.185, y: -0.765}
      - {x: 1.145, y: -0.72499996}
      - {x: 1.385, y: -0.745}
      - {x: 1.405, y: -0.73499995}
      - {x: 1.405, y: -0.615}
      - {x: 1.285, y: -0.42499998}
      - {x: 1.245, y: -0.385}
      - {x: 1.265, y: -0.235}
      - {x: 1.265, y: -0.044999998}
      - {x: 1.235, y: 0.105}
      - {x: 1.1949999, y: 0.205}
      - {x: 1.105, y: 0.375}
      - {x: 1.035, y: 0.475}
      - {x: 0.965, y: 0.645}
      - {x: 1.125, y: 0.685}
      - {x: 1.2149999, y: 0.765}
      - {x: 1.2049999, y: 0.85499996}
      - {x: 1.095, y: 0.92499995}
      - {x: 1.0849999, y: 1.0749999}
      - {x: 1.005, y: 1.135}
      - {x: 0.84499997, y: 1.135}
      - {x: 0.695, y: 1.105}
      - {x: 0.545, y: 1.055}
      - {x: 0.45499998, y: 1.015}
      - {x: 0.074999996, y: 0.905}
      - {x: -0.105, y: 0.825}
      - {x: -0.21499999, y: 0.765}
      - {x: -0.415, y: 0.555}
      - {x: -0.53499997, y: 0.59499997}
      - {x: -0.765, y: 0.815}
      - {x: -0.865, y: 0.865}
      - {x: -1.015, y: 0.91499996}
      - {x: -1.1949999, y: 0.895}
      - {x: -1.245, y: 0.84499997}
      - {x: -1.255, y: 0.79499996}
      - {x: -1.245, y: 0.765}
      - {x: -1.345, y: 0.695}
      - {x: -1.395, y: 0.615}
      - {x: -1.395, y: 0.575}
      - {x: -1.355, y: 0.545}
      - {x: -1.0849999, y: 0.53499997}
      - {x: -0.85499996, y: 0.465}
      - {x: -0.66499996, y: 0.36499998}
      - {x: -0.625, y: 0.295}
      - {x: -0.715, y: 0.114999995}
      - {x: -0.73499995, y: -0.015}
      - {x: -0.73499995, y: -0.195}
      - {x: -0.72499996, y: -0.235}
      - {x: -1.035, y: -0.295}
      - {x: -1.175, y: -0.345}
      - {x: -1.255, y: -0.375}
      - {x: -1.345, y: -0.45499998}
      - {x: -1.3249999, y: -0.525}
      - {x: -1.345, y: -0.585}
      - {x: -1.3349999, y: -0.655}
      - {x: -1.225, y: -0.695}
      - {x: -1.1949999, y: -0.78499997}
      - {x: -1.0649999, y: -0.84499997}
      - {x: -0.625, y: -0.97499996}
      - {x: -0.515, y: -0.98499995}
      - {x: -0.36499998, y: -1.005}
      - {x: -0.145, y: -1.005}
      - {x: 0.035, y: -1.0649999}
      - {x: 0.24499999, y: -1.095}
      - {x: 0.515, y: -1.095}
      - {x: 0.685, y: -1.0649999}
      - {x: 0.92499995, y: -0.945}
      - {x: 0.98499995, y: -0.97499996}
--- !u!95 &95262535045311410
Animator:
  serializedVersion: 3
  m_ObjectHideFlags: 1
  m_PrefabParentObject: {fileID: 0}
  m_PrefabInternal: {fileID: 100100000}
  m_GameObject: {fileID: 1775018873607542}
  m_Enabled: 1
  m_Avatar: {fileID: 0}
  m_Controller: {fileID: 9100000, guid: 8a2f49ef8164433418bfecbe85de0d57, type: 2}
  m_CullingMode: 0
  m_UpdateMode: 0
  m_ApplyRootMotion: 0
  m_LinearVelocityBlending: 0
  m_WarningMessage: 
  m_HasTransformHierarchy: 1
  m_AllowConstantClipSamplingOptimization: 1
--- !u!114 &114305415778343146
MonoBehaviour:
  m_ObjectHideFlags: 1
  m_PrefabParentObject: {fileID: 0}
  m_PrefabInternal: {fileID: 100100000}
  m_GameObject: {fileID: 1775018873607542}
  m_Enabled: 1
  m_EditorHideFlags: 0
  m_Script: {fileID: 11500000, guid: 96b7548026e29a9419aa1d74a75a2dce, type: 3}
  m_Name: 
  m_EditorClassIdentifier: 
  minPower: 1
  maxPower: 25
--- !u!114 &114740525785152756
MonoBehaviour:
  m_ObjectHideFlags: 1
  m_PrefabParentObject: {fileID: 0}
  m_PrefabInternal: {fileID: 100100000}
  m_GameObject: {fileID: 1775018873607542}
  m_Enabled: 1
  m_EditorHideFlags: 0
  m_Script: {fileID: 11500000, guid: 170a2f7f235949846b6199abe7658d76, type: 3}
  m_Name: 
  m_EditorClassIdentifier: 
  countOfDot: 0
  maxPredictionTime: 0.75
--- !u!212 &212086459776777844
SpriteRenderer:
  m_ObjectHideFlags: 1
  m_PrefabParentObject: {fileID: 0}
  m_PrefabInternal: {fileID: 100100000}
  m_GameObject: {fileID: 1775018873607542}
  m_Enabled: 1
  m_CastShadows: 0
  m_ReceiveShadows: 0
  m_DynamicOccludee: 1
  m_MotionVectors: 1
  m_LightProbeUsage: 1
  m_ReflectionProbeUsage: 1
  m_Materials:
  - {fileID: 10754, guid: 0000000000000000f000000000000000, type: 0}
  m_StaticBatchInfo:
    firstSubMesh: 0
    subMeshCount: 0
  m_StaticBatchRoot: {fileID: 0}
  m_ProbeAnchor: {fileID: 0}
  m_LightProbeVolumeOverride: {fileID: 0}
  m_ScaleInLightmap: 1
  m_PreserveUVs: 0
  m_IgnoreNormalsForChartDetection: 0
  m_ImportantGI: 0
  m_StitchLightmapSeams: 0
  m_SelectedEditorRenderState: 0
  m_MinimumChartSize: 4
  m_AutoUVMaxDistance: 0.5
  m_AutoUVMaxAngle: 89
  m_LightmapParameters: {fileID: 0}
  m_SortingLayerID: 0
  m_SortingLayer: 0
  m_SortingOrder: 5
  m_Sprite: {fileID: 21300000, guid: 23c14d1aa1503411f90e98fe2424af49, type: 3}
  m_Color: {r: 1, g: 1, b: 1, a: 1}
  m_FlipX: 0
  m_FlipY: 0
  m_DrawMode: 0
  m_Size: {x: 2.81, y: 2.27}
  m_AdaptiveModeThreshold: 0.5
  m_SpriteTileMode: 0
  m_WasSpriteAssigned: 1
  m_MaskInteraction: 0
